<svg xmlns="http://www.w3.org/2000/svg" width="37" height="20" viewBox="0 0 37 20">
  <g fill="none" fill-rule="evenodd" stroke="#FFF" stroke-width="2" transform="translate(1 1)">
    <path d="M7,-2.45137244e-13 L7,17.55 L0,17.55 L0,-2.48689958e-13 L7,-2.48689958e-13 Z" opacity=".5"/>
    <rect width="28" height="17.545" x="7"/>
  </g>
</svg>
