<svg xmlns="http://www.w3.org/2000/svg" width="140" height="42" viewBox="0 0 140 42">
  <path fill="#FFF" d="M102.665892 12.3087845C103.337903 12.3089461 104.009231 12.3515727 104.675851 12.4364088 105.044149 7.39176796 109.475353 3.39364641 114.86971 3.39364641 120.097925 3.39364641 124.425726 7.15276243 125.018257 11.9792818 125.42722 11.9475691 125.839668 11.9320994 126.255602 11.9328729 126.797787 11.9328729 127.325643 11.9545304 127.83917 11.9978453 127.289877 5.18404424 121.548073-.0397217206 114.703326.0471455626 107.85858.134012846 102.251566 5.50180764 101.875851 12.3273481 102.138423 12.3157459 102.400996 12.3087845 102.665892 12.3087845zM118.105394 17.4729282L118.399336 17.2640884 118.476017 17.2083978 118.585228 17.1364641 118.838506 16.968232C118.883817 16.9392265 118.933776 16.9055801 118.981411 16.8765746L119.128963 16.7872376C119.231203 16.7257459 119.338091 16.6596133 119.455436 16.5923204 120.030334 16.264531 120.627859 15.9780064 121.243485 15.7349171 121.607137 15.5910497 122.004481 15.4564641 122.434357 15.3276796 122.893127 15.1959219 123.358495 15.0882605 123.828548 15.0051381 124.074855 14.9552486 124.331618 14.9250829 124.593029 14.889116 124.85444 14.8531492 125.125145 14.8287845 125.406307 14.8171823 125.687469 14.8055801 125.966307 14.7916575 126.255602 14.7881768L126.382241 14.7881768 126.476349 14.7881768 126.670373 14.7881768C126.826058 14.7951381 126.995685 14.7986188 127.142075 14.810221 133.593234 15.2143842 138.873395 20.0870136 139.785062 26.4774033 140.339243 30.400137 139.16218 34.3700414 136.558672 37.359116 135.180354 38.9485496 133.44714 40.1921168 131.498921 40.9894475 129.990936 41.6040032 128.380328 41.9287502 126.751701 41.9466298 126.614606 41.9466298 126.478672 41.9466298 126.341577 41.9466298L126.211452 41.9466298 126.123154 41.9466298 125.946556 41.9385083 125.768797 41.931547C125.710705 41.931547 125.631701 41.9222652 125.563154 41.9176243L125.139087 41.8839779C124.598287 41.8292988 124.06077 41.7460328 123.528797 41.6345304 122.988067 41.5187256 122.454951 41.3699384 121.932448 41.1890055 120.866972 40.8189945 119.857856 40.3036154 118.933776 39.6575138 118.701411 39.500884 118.47834 39.3198895 118.252946 39.1481768 118.027552 38.9764641 117.8161 38.7861878 117.613942 38.5889503 117.199993 38.2037425 116.811879 37.7917473 116.452116 37.3556354 115.754097 36.4914161 115.156941 35.5505986 114.672199 34.5513812 114.201322 33.5765204 113.816462 32.5625145 113.521992 31.520884L113.41278 31.1356906 113.316349 30.749337 113.221079 30.3629834 113.138589 29.9754696 113.057261 29.5867956 112.987552 29.1992818 112.919004 28.8106077 112.859751 28.4509392C112.558838 26.6201105 112.090622 24.8890608 111.281992 23.4028177 110.88529 22.6688133 110.397334 21.9877878 109.82971 21.3759116 109.545001 21.0749806 109.243203 20.7906441 108.925809 20.5243094 108.601573 20.2616557 108.263794 20.0161266 107.913859 19.7887293L107.644315 19.6239779 107.509544 19.540442 107.371286 19.4638674 107.09361 19.309558 106.808963 19.1656906 106.66722 19.0937569 106.531286 19.0322652 106.452282 18.9962983 106.397676 18.9742541 106.281494 18.9278453C106.106058 18.8617127 105.925975 18.7979006 105.738921 18.7445304 104.9518 18.5256773 104.140354 18.4060188 103.323485 18.3883425 103.218921 18.3883425 103.113195 18.3825414 103.007469 18.3813812L102.682158 18.3813812 102.392863 18.390663C102.291784 18.3976243 102.189544 18.401105 102.088465 18.4103867 101.685532 18.4418577 101.28479 18.496869 100.888299 18.5751381 96.9980912 19.361271 93.9250572 22.3420958 93.0250622 26.2024309 92.705367 27.5930158 92.6792522 29.0348571 92.9483817 30.4360773 93.2037018 31.7459905 93.7162425 32.9924492 94.4564315 34.1035359 95.1372514 35.1285742 95.996669 36.0233502 96.9938589 36.7453591 98.6966867 37.9764506 100.73925 38.6512311 102.841328 38.6771271 103.664701 38.6801172 104.484931 38.5755847 105.281162 38.3661878 105.947034 38.1965896 106.598199 37.9738854 107.228382 37.700221 107.693276 37.5006051 108.14532 37.2723766 108.581909 37.0168508 108.930456 36.8091713 109.186058 36.6351381 109.352199 36.5167956 109.435851 36.4564641 109.496266 36.4100552 109.536929 36.3787293L109.599668 36.3323204 109.628714 36.3102762C110.263744 35.8528623 111.148038 35.9836054 111.623103 36.6051472 112.098169 37.2266891 111.991225 38.1129765 111.381909 38.6040331L111.299419 38.6678453C111.244813 38.7107735 111.162324 38.7745856 111.053112 38.8534807 110.833527 39.0135912 110.505892 39.2421547 110.06556 39.5066851 109.527984 39.8271008 108.971194 40.1142167 108.39834 40.3664088 107.626475 40.7083203 106.828469 40.9880515 106.01195 41.2029282 105.52136 41.3311922 105.024136 41.4326686 104.52249 41.5069061 104.257593 41.5463536 103.981079 41.5765193 103.696432 41.5985635L103.47917 41.6136464 103.246805 41.6240884 103.142241 41.6240884 103.046971 41.6240884 102.814606 41.6240884C100.097066 41.6129744 97.4496372 40.7618442 95.2360166 39.1876243 93.9353964 38.2634796 92.8115066 37.1136338 91.9178423 35.7928177 90.9432181 34.3521055 90.2636694 32.7330626 89.9183402 31.0289503 88.4722119 23.8671204 93.0809213 16.8809853 100.241162 15.3810497 100.765177 15.2727536 101.295106 15.1952722 101.828216 15.1490055 101.961826 15.1362431 102.095436 15.1292818 102.229046 15.12L102.647303 15.1037569 102.825062 15.1037569 103.033029 15.1037569C103.163154 15.1037569 103.29444 15.1037569 103.425726 15.1037569 104.519096 15.1227241 105.60576 15.2786384 106.660249 15.5678453 106.93444 15.6444199 107.208631 15.7360773 107.482822 15.839337 107.553693 15.8660221 107.631535 15.8985083 107.705892 15.928674L107.822075 15.9750829 107.90805 16.0133702 108.100913 16.1003867 108.282158 16.1897238 108.644647 16.3683978 109.001328 16.5621547 109.180249 16.6596133 109.355685 16.7651934 109.704232 16.9763536C110.170194 17.2718233 110.619352 17.5929262 111.049627 17.9381768 111.481028 18.2918913 111.891094 18.6707854 112.277676 19.0728729 113.046762 19.887439 113.710326 20.7952655 114.25278 21.7750276 114.778196 22.7348637 115.204458 23.7455931 115.524979 24.7916022 115.833021 25.8013661 116.075571 26.8299069 116.25112 27.8708287L116.315021 28.2374586 116.377759 28.5727624 116.440498 28.9092265 116.513693 29.2410497 116.586888 29.5728729 116.670539 29.9000552 116.754191 30.2260773 116.849461 30.5474586C117.094984 31.3902297 117.413359 32.2101075 117.800996 32.9978453 118.175825 33.7520888 118.635378 34.4612914 119.170788 35.111768 119.432475 35.4247703 119.714642 35.7201133 120.015436 35.9958564 120.160664 36.1374033 120.322158 36.2592265 120.473195 36.3903315 120.624232 36.5214365 120.790373 36.6386188 120.958838 36.7465193 122.27751 37.6561326 123.845975 38.1631492 125.47834 38.3058564L125.762988 38.3255801C125.812946 38.3255801 125.851286 38.3337017 125.910539 38.3348619L126.088299 38.340663 126.264896 38.3476243 126.353195 38.3476243 126.40083 38.3476243C126.499585 38.3476243 126.599502 38.3476243 126.698257 38.3476243 127.092959 38.3390785 127.486772 38.3065321 127.87751 38.2501657 128.648302 38.1355126 129.401882 37.9258464 130.120996 37.6259669 131.530815 37.0339791 132.78192 36.1199948 133.773776 34.9574586 135.647634 32.764888 136.477107 29.8684939 136.047469 27.0180663 135.856434 25.7449679 135.414131 24.5224283 134.746224 23.4213812 132.636161 19.9174842 128.562671 18.0984302 124.540747 18.8640331 124.192199 18.9266851 123.861079 19.0171823 123.555519 19.1018785 123.249959 19.1865746 122.974606 19.2944751 122.714357 19.398895 122.278704 19.5749554 121.856264 19.7820064 121.45029 20.018453L121.217925 20.1588398 121.113361 20.2226519 121.026224 20.280663 120.876349 20.380442 120.810124 20.4245304 120.733444 20.480221 120.441826 20.6925414C119.552166 21.3397215 118.305586 21.1441491 117.65751 20.2557182 117.009435 19.3672874 117.205278 18.1224287 118.094938 17.4752486L118.105394 17.4729282zM14.9724481 41.1878453L14.9724481 40.0137017 18.2406639 40.0137017 16.0529461 33.8378453 7.12082988 33.8378453 5.00282158 40.0137017 8.09443983 40.0137017 8.09443983 41.1878453 0 41.1878453 0 40.0137017 2.50141079 40.0137017 10.7689627 17.2559669 13.5829046 17.2559669 21.7458921 40.0137017 24.2821577 40.0137017 24.2821577 41.1878453 14.9724481 41.1878453zM11.533444 20.968674L7.74705394 31.9652486 15.3895436 31.9652486 11.533444 20.968674zM26.4361826 41.1878453L26.4361826 40.0137017 29.353527 40.0137017 29.353527 18.4335912 26.4361826 18.4335912 26.4361826 17.2559669 36.26639 17.2559669C39.1500415 17.2559669 41.3784232 17.6376796 43.0758506 18.3314917 46.4451452 19.7539227 48.4946058 23.0501105 48.4946058 28.738674 48.4946058 37.4809392 43.6312033 41.1878453 35.3287967 41.1878453L26.4361826 41.1878453zM34.3563485 39.2456354C42.2416598 39.2456354 44.9161826 36.261547 44.9161826 29.1517127 44.9161826 24.8496133 43.9437344 22.2135912 42.1370954 20.7911602 40.7126971 19.6460221 38.6980913 19.0914365 36.0235685 19.0914365 34.773444 19.0914365 33.4873029 19.1262431 32.7239834 19.1610497L32.7239834 39.2502762 34.3563485 39.2456354zM69.3726141 30.8549171L65.5862241 30.8549171 65.5862241 29.6749724 74.6182573 29.6749724 74.6182573 30.8549171 72.6024896 30.8549171 72.6024896 38.9381768C70.6924481 40.498674 67.8390041 41.6786188 64.0921162 41.6786188 55.9976763 41.6786188 52.4552697 36.1281215 52.4552697 29.6749724 52.4552697 23.0501105 56.206805 16.7709945 65.0297095 16.7709945 68.7126971 16.7709945 71.0049793 17.8465193 72.4990871 18.8872376L72.4990871 23.8471823 71.0746888 23.8471823 71.0746888 20.1008287C69.8582573 19.4418232 67.9482158 18.8524309 65.5513693 18.8524309 59.5098755 18.8524309 56.0325311 22.6335912 56.0325311 29.2944199 56.0325311 35.9552486 59.4715353 39.5971823 64.9948548 39.5971823 66.4889627 39.5971823 67.8785062 39.3535359 69.3726141 38.6260773L69.3726141 30.8549171z"/>
</svg>
