<svg xmlns="http://www.w3.org/2000/svg" width="72" height="72" viewBox="0 0 72 72">
  <g fill="none" transform="translate(.137 .14)">
    <path fill="#FFF" d="M35.6136406,0.0813404608 C55.2364977,0.0813404608 71.1459908,15.9876999 71.1459908,35.6042898 C71.1459908,55.2302806 55.2364977,71.1429073 35.6136406,71.1429073 C15.9876498,71.1429073 0.0844239631,55.2302806 0.0844239631,35.6042898 C0.0844239631,15.9876999 15.9876498,0.0813404608 35.6136406,0.0813404608" transform="matrix(1 0 0 -1 0 71.224)"/>
    <path fill="#43434E" d="M24.1351152,19.7449349 C17.4322586,19.484843 15.6178802,29.0079764 15.2042396,30.6343359 C15.1823044,30.7502806 15.1258986,30.7910179 15.1258986,30.7910179 C13.0576964,30.5089902 11.9139171,30.0859488 11.9139171,30.0859488 L11.443871,31.417746 C12.8383415,32.0789441 14.8908756,32.2794971 14.8908756,32.2794971 C14.4897693,34.8396815 12.4623041,39.6435524 12.4623041,39.6435524 C12.4623041,39.6435524 10.6635945,39.0951653 8.38857143,39.0951653 C5.4304145,39.0951653 4.39004608,40.4865018 4.31483871,41.3670547 C4.120553,43.6483451 7.01290323,44.7357183 9.01529954,44.7357183 C12.9229496,44.7357208 14.9692166,42.620511 14.9692166,42.620511 C14.9692171,42.620511 25.9087558,46.7725847 37.3747465,46.7725847 C52.3817512,46.7725847 65.0291244,42.777193 65.0291244,42.777193 L64.6374194,41.3670547 C64.6374219,41.3670573 55.4715207,44.5602345 37.9231336,44.3440133 C25.8178802,44.1967297 16.5360369,40.6619856 16.5360369,40.6619856 C16.5360371,40.6619856 16.8870046,40.0352575 17.084424,39.6435524 C18.2971426,37.17111 19.7480184,32.2011561 19.7480184,32.2011561 C19.7480187,32.2011561 28.0521659,29.8759948 28.0521659,23.2702806 C28.0521659,21.1801433 26.0560369,19.8295432 24.1351152,19.7449349 Z M24.4484793,21.6251193 C25.7364055,21.6251185 26.2001843,22.6435524 26.0936406,23.5836446 C25.4669124,29.1019856 19.9830415,30.3993128 19.9830415,30.3993128 C19.983042,30.3993128 21.3085714,21.6251193 24.4484793,21.6251193 Z M37.7664516,26.1688981 C36.3719816,26.1688981 35.4162212,26.7423543 35.4162212,28.0490824 C35.4162212,29.3714787 36.5317972,29.6942437 37.7664516,29.6942437 C39.0042396,29.6942437 40.195023,29.1615248 40.195023,27.8140594 C40.195023,26.4634603 38.7754839,26.1688981 37.7664516,26.1688981 Z M56.3332719,30.9476999 C52.3284818,30.9476999 50.16,34.4009718 50.0659908,36.4315709 C50.0471889,36.8734142 49.9876498,36.901617 49.9876498,36.901617 C49.8936406,37.0081607 48.5148387,38.6251193 46.7756682,38.6251193 C45.3843343,38.6251193 45.1305069,37.4907414 45.1305069,36.7449349 C45.1305069,35.9364557 45.8199078,32.7495432 47.7157604,32.7495432 C48.7467281,32.7495432 49.3609217,33.6112944 49.3609217,33.6112944 L49.9093088,31.8094511 C49.9093088,31.8094511 49.044424,31.1106492 47.2457143,31.1043819 C43.3725371,31.1012483 40.7590783,33.9685294 40.6650691,36.5882529 C40.6462673,36.979958 40.5804608,37.1115709 40.5867281,37.13664 C40.4582488,37.293322 39.5526267,38.3900962 38.3148387,38.3900962 C37.4687558,38.3900962 37.4530876,37.7414326 37.4530876,37.4500041 C37.4530876,37.0520317 39.0982488,31.339405 39.0982488,31.339405 L34.7111521,31.417746 L33.2226728,36.979958 C33.2226728,36.979958 30.7784332,38.7003266 27.4254378,38.9384833 C25.6956682,39.0575617 25.0752074,37.9889902 25.0752074,37.371663 C25.0752079,37.1147045 25.0752074,37.13664 25.0752074,37.13664 C25.0783415,37.13664 25.802212,37.214981 26.3286636,37.214981 C26.7423041,37.214981 31.8908756,36.8170087 31.8908756,33.6896354 C31.8908756,31.9003266 30.0764977,31.261064 27.8171429,31.261064 C23.64,31.261064 20.6881106,33.8275156 20.6881106,36.901617 C20.6881106,39.7062253 23.082212,40.8970087 26.1719816,40.8970087 C29.6785253,40.8970087 33.1443318,38.7818013 33.1443318,38.7818013 C33.1443318,38.7818013 33.3542857,40.8970087 36.1212903,40.8970087 C38.9760369,40.8970087 41.2134562,38.7818013 41.2134562,38.7818013 C41.2134562,38.7818013 42.4481106,40.8186676 45.2871889,40.8186676 C48.1889401,40.8186702 50.3793548,38.4684372 50.3793548,38.4684372 C50.3793573,38.4684372 51.1878341,40.6619856 54.0613825,40.6619856 C56.3082028,40.6619856 57.5083871,39.2518474 57.5083871,39.2518474 C57.5083871,39.2518474 58.1351152,40.6619856 60.0936406,40.6619856 C62.4846108,40.6619856 64.2457143,39.0168243 64.2457143,39.0168243 L63.8540092,37.6066861 C63.8540092,37.6066861 62.9452535,38.3117552 62.2871889,38.3117552 C61.7889426,38.3117552 61.5037788,37.9075156 61.5037788,37.4500041 C61.5037813,36.42217 63.1489401,31.339405 63.1489401,31.339405 L59.1535484,31.417746 L58.9968664,32.0444741 C58.9968689,32.0444741 58.4014747,30.9476999 56.3332719,30.9476999 Z M27.9738249,32.5145202 C28.5629493,32.5489902 29.0110599,32.9469626 28.9922581,33.3762713 C28.8951152,36.1589441 25.4669124,35.7265018 25.4669124,35.7265018 C25.4669124,35.7265018 25.9714286,32.3923082 27.9738249,32.5145202 Z M57.116682,32.5928612 C57.940832,32.5928612 58.3701382,33.2477921 58.3701382,33.7679764 C58.3701408,33.8745202 57.9032258,38.6251193 55.5498618,38.6251193 C54.4718894,38.6251193 54.4530876,37.3998658 54.4530876,37.058299 C54.4530901,36.1526769 55.164424,32.5928612 57.116682,32.5928612 Z M7.60516129,40.8186676 C7.80977824,40.7980057 7.97571429,40.8061331 8.15354839,40.8186676 C9.86764952,40.9126794 11.36553,41.5237368 11.36553,41.5237368 C11.3655297,41.5237393 9.60129032,42.8900041 8.15354839,42.933875 C7.04737302,42.9683476 6.35170507,42.2476077 6.35170507,41.8371008 C6.35170482,41.1555365 6.99131044,40.8806561 7.60516129,40.8186676 Z"/>
  </g>
</svg>
